{
  "success": true,
  "snackbar": null,
  "data": [
    {
      "id": 141,
      "order_id": 17,
      "price": "81000",
      "file_id": 8,
      "user_id": 1,
      "book_id": 65,
      "status": "PENDING",
      "created_at": "2025-08-17T12:58:15.000000Z",
      "updated_at": "2025-08-17T12:58:15.000000Z",
      "file": {
        "id": 8,
        "language": "ar",
        "book_id": 64,
        "file": "test3",
        "price": "81000",
        "status": 2,
        "created_at": null,
        "updated_at": null
      },
      "image": "http://10.10.10.97:9000/rastegari/books`/09e8cb59-c9be-44ae-9c3e-6c2b88b6fd0b.jpg",
      "title": "کتاب ارباب حلقه ها",
      "total": 183000,
      "book_files": [
        {
          "id": 2,
          "language": "fa",
          "book_id": 65,
          "file": "test",
          "price": "21000",
          "status": 2,
          "created_at": null,
          "updated_at": null
        },
        {
          "id": 3,
          "language": "fa",
          "book_id": 65,
          "file": "test",
          "price": "212000",
          "status": 0,
          "created_at": null,
          "updated_at": null
        },
        {
          "id": 4,
          "language": "fa",
          "book_id": 65,
          "file": "test",
          "price": "32000",
          "status": 1,
          "created_at": null,
          "updated_at": null
        }
      ]
    },
    {
      "id": 140,
      "order_id": 17,
      "price": "312000",
      "file_id": 7,
      "user_id": 1,
      "book_id": 66,
      "status": "PENDING",
      "created_at": "2025-08-17T12:57:58.000000Z",
      "updated_at": "2025-08-17T12:57:58.000000Z",
      "file": {
        "id": 7,
        "language": "en",
        "book_id": 66,
        "file": "test2",
        "price": "312000",
        "status": 1,
        "created_at": null,
        "updated_at": null
      },
      "image": "http://10.10.10.97:9000/rastegari/books`/f12c519b-3493-4423-a213-3213c5fbd058.jpg",
      "title": "کتاب تاریخی",
      "total": 981000,
      "book_files": [
        {
          "id": 5,
          "language": "en",
          "book_id": 66,
          "file": "test2",
          "price": "51000",
          "status": 2,
          "created_at": null,
          "updated_at": null
        },
        {
          "id": 6,
          "language": "en",
          "book_id": 66,
          "file": "test2",
          "price": "712000",
          "status": 0,
          "created_at": null,
          "updated_at": null
        },
        {
          "id": 7,
          "language": "en",
          "book_id": 66,
          "file": "test2",
          "price": "312000",
          "status": 1,
          "created_at": null,
          "updated_at": null
        }
      ]
    },
    {
      "id": 139,
      "order_id": 17,
      "price": "51000",
      "file_id": 5,
      "user_id": 1,
      "book_id": 66,
      "status": "PENDING",
      "created_at": "2025-08-17T12:57:55.000000Z",
      "updated_at": "2025-08-17T12:57:55.000000Z",
      "file": {
        "id": 5,
        "language": "en",
        "book_id": 66,
        "file": "test2",
        "price": "51000",
        "status": 2,
        "created_at": null,
        "updated_at": null
      },
      "image": "http://10.10.10.97:9000/rastegari/books`/f12c519b-3493-4423-a213-3213c5fbd058.jpg",
      "title": "کتاب تاریخی",
      "total": 981000,
      "book_files": [
        {
          "id": 5,
          "language": "en",
          "book_id": 66,
          "file": "test2",
          "price": "51000",
          "status": 2,
          "created_at": null,
          "updated_at": null
        },
        {
          "id": 6,
          "language": "en",
          "book_id": 66,
          "file": "test2",
          "price": "712000",
          "status": 0,
          "created_at": null,
          "updated_at": null
        },
        {
          "id": 7,
          "language": "en",
          "book_id": 66,
          "file": "test2",
          "price": "312000",
          "status": 1,
          "created_at": null,
          "updated_at": null
        }
      ]
    },
    {
      "id": 138,
      "order_id": 17,
      "price": "312000",
      "file_id": 7,
      "user_id": 1,
      "book_id": 66,
      "status": "PENDING",
      "created_at": "2025-08-17T12:57:39.000000Z",
      "updated_at": "2025-08-17T12:57:39.000000Z",
      "file": {
        "id": 7,
        "language": "en",
        "book_id": 66,
        "file": "test2",
        "price": "312000",
        "status": 1,
        "created_at": null,
        "updated_at": null
      },
      "image": "http://10.10.10.97:9000/rastegari/books`/f12c519b-3493-4423-a213-3213c5fbd058.jpg",
      "title": "کتاب تاریخی",
      "total": 981000,
      "book_files": [
        {
          "id": 5,
          "language": "en",
          "book_id": 66,
          "file": "test2",
          "price": "51000",
          "status": 2,
          "created_at": null,
          "updated_at": null
        },
        {
          "id": 6,
          "language": "en",
          "book_id": 66,
          "file": "test2",
          "price": "712000",
          "status": 0,
          "created_at": null,
          "updated_at": null
        },
        {
          "id": 7,
          "language": "en",
          "book_id": 66,
          "file": "test2",
          "price": "312000",
          "status": 1,
          "created_at": null,
          "updated_at": null
        }
      ]
    },
    {
      "id": 137,
      "order_id": 17,
      "price": "51000",
      "file_id": 5,
      "user_id": 1,
      "book_id": 66,
      "status": "PENDING",
      "created_at": "2025-08-17T12:46:41.000000Z",
      "updated_at": "2025-08-17T12:46:41.000000Z",
      "file": {
        "id": 5,
        "language": "en",
        "book_id": 66,
        "file": "test2",
        "price": "51000",
        "status": 2,
        "created_at": null,
        "updated_at": null
      },
      "image": "http://10.10.10.97:9000/rastegari/books`/f12c519b-3493-4423-a213-3213c5fbd058.jpg",
      "title": "کتاب تاریخی",
      "total": 981000,
      "book_files": [
        {
          "id": 5,
          "language": "en",
          "book_id": 66,
          "file": "test2",
          "price": "51000",
          "status": 2,
          "created_at": null,
          "updated_at": null
        },
        {
          "id": 6,
          "language": "en",
          "book_id": 66,
          "file": "test2",
          "price": "712000",
          "status": 0,
          "created_at": null,
          "updated_at": null
        },
        {
          "id": 7,
          "language": "en",
          "book_id": 66,
          "file": "test2",
          "price": "312000",
          "status": 1,
          "created_at": null,
          "updated_at": null
        }
      ]
    },
    {
      "id": 136,
      "order_id": 17,
      "price": "51000",
      "file_id": 5,
      "user_id": 1,
      "book_id": 66,
      "status": "PENDING",
      "created_at": "2025-08-17T12:45:23.000000Z",
      "updated_at": "2025-08-17T12:45:23.000000Z",
      "file": {
        "id": 5,
        "language": "en",
        "book_id": 66,
        "file": "test2",
        "price": "51000",
        "status": 2,
        "created_at": null,
        "updated_at": null
      },
      "image": "http://10.10.10.97:9000/rastegari/books`/f12c519b-3493-4423-a213-3213c5fbd058.jpg",
      "title": "کتاب تاریخی",
      "total": 981000,
      "book_files": [
        {
          "id": 5,
          "language": "en",
          "book_id": 66,
          "file": "test2",
          "price": "51000",
          "status": 2,
          "created_at": null,
          "updated_at": null
        },
        {
          "id": 6,
          "language": "en",
          "book_id": 66,
          "file": "test2",
          "price": "712000",
          "status": 0,
          "created_at": null,
          "updated_at": null
        },
        {
          "id": 7,
          "language": "en",
          "book_id": 66,
          "file": "test2",
          "price": "312000",
          "status": 1,
          "created_at": null,
          "updated_at": null
        }
      ]
    },
    {
      "id": 135,
      "order_id": 17,
      "price": "51000",
      "file_id": 5,
      "user_id": 1,
      "book_id": 66,
      "status": "PENDING",
      "created_at": "2025-08-17T12:44:35.000000Z",
      "updated_at": "2025-08-17T12:44:35.000000Z",
      "file": {
        "id": 5,
        "language": "en",
        "book_id": 66,
        "file": "test2",
        "price": "51000",
        "status": 2,
        "created_at": null,
        "updated_at": null
      },
      "image": "http://10.10.10.97:9000/rastegari/books`/f12c519b-3493-4423-a213-3213c5fbd058.jpg",
      "title": "کتاب تاریخی",
      "total": 981000,
      "book_files": [
        {
          "id": 5,
          "language": "en",
          "book_id": 66,
          "file": "test2",
          "price": "51000",
          "status": 2,
          "created_at": null,
          "updated_at": null
        },
        {
          "id": 6,
          "language": "en",
          "book_id": 66,
          "file": "test2",
          "price": "712000",
          "status": 0,
          "created_at": null,
          "updated_at": null
        },
        {
          "id": 7,
          "language": "en",
          "book_id": 66,
          "file": "test2",
          "price": "312000",
          "status": 1,
          "created_at": null,
          "updated_at": null
        }
      ]
    },
    {
      "id": 134,
      "order_id": 17,
      "price": "51000",
      "file_id": 5,
      "user_id": 1,
      "book_id": 66,
      "status": "PENDING",
      "created_at": "2025-08-17T12:44:28.000000Z",
      "updated_at": "2025-08-17T12:44:28.000000Z",
      "file": {
        "id": 5,
        "language": "en",
        "book_id": 66,
        "file": "test2",
        "price": "51000",
        "status": 2,
        "created_at": null,
        "updated_at": null
      },
      "image": "http://10.10.10.97:9000/rastegari/books`/f12c519b-3493-4423-a213-3213c5fbd058.jpg",
      "title": "کتاب تاریخی",
      "total": 981000,
      "book_files": [
        {
          "id": 5,
          "language": "en",
          "book_id": 66,
          "file": "test2",
          "price": "51000",
          "status": 2,
          "created_at": null,
          "updated_at": null
        },
        {
          "id": 6,
          "language": "en",
          "book_id": 66,
          "file": "test2",
          "price": "712000",
          "status": 0,
          "created_at": null,
          "updated_at": null
        },
        {
          "id": 7,
          "language": "en",
          "book_id": 66,
          "file": "test2",
          "price": "312000",
          "status": 1,
          "created_at": null,
          "updated_at": null
        }
      ]
    },
    {
      "id": 133,
      "order_id": 17,
      "price": "51000",
      "file_id": 5,
      "user_id": 1,
      "book_id": 66,
      "status": "PENDING",
      "created_at": "2025-08-17T12:44:09.000000Z",
      "updated_at": "2025-08-17T12:44:09.000000Z",
      "file": {
        "id": 5,
        "language": "en",
        "book_id": 66,
        "file": "test2",
        "price": "51000",
        "status": 2,
        "created_at": null,
        "updated_at": null
      },
      "image": "http://10.10.10.97:9000/rastegari/books`/f12c519b-3493-4423-a213-3213c5fbd058.jpg",
      "title": "کتاب تاریخی",
      "total": 981000,
      "book_files": [
        {
          "id": 5,
          "language": "en",
          "book_id": 66,
          "file": "test2",
          "price": "51000",
          "status": 2,
          "created_at": null,
          "updated_at": null
        },
        {
          "id": 6,
          "language": "en",
          "book_id": 66,
          "file": "test2",
          "price": "712000",
          "status": 0,
          "created_at": null,
          "updated_at": null
        },
        {
          "id": 7,
          "language": "en",
          "book_id": 66,
          "file": "test2",
          "price": "312000",
          "status": 1,
          "created_at": null,
          "updated_at": null
        }
      ]
    },
    {
      "id": 132,
      "order_id": 17,
      "price": "51000",
      "file_id": 5,
      "user_id": 1,
      "book_id": 66,
      "status": "PENDING",
      "created_at": "2025-08-17T12:43:59.000000Z",
      "updated_at": "2025-08-17T12:43:59.000000Z",
      "file": {
        "id": 5,
        "language": "en",
        "book_id": 66,
        "file": "test2",
        "price": "51000",
        "status": 2,
        "created_at": null,
        "updated_at": null
      },
      "image": "http://10.10.10.97:9000/rastegari/books`/f12c519b-3493-4423-a213-3213c5fbd058.jpg",
      "title": "کتاب تاریخی",
      "total": 981000,
      "book_files": [
        {
          "id": 5,
          "language": "en",
          "book_id": 66,
          "file": "test2",
          "price": "51000",
          "status": 2,
          "created_at": null,
          "updated_at": null
        },
        {
          "id": 6,
          "language": "en",
          "book_id": 66,
          "file": "test2",
          "price": "712000",
          "status": 0,
          "created_at": null,
          "updated_at": null
        },
        {
          "id": 7,
          "language": "en",
          "book_id": 66,
          "file": "test2",
          "price": "312000",
          "status": 1,
          "created_at": null,
          "updated_at": null
        }
      ]
    }
  ],
  "pagination": {
    "total": 12,
    "totalPages": 2,
    "perPage": 10,
    "currentPage": 1
  }
}